…
    ## # A tibble: 1 x 2
    ##         bigram     n
    ##          <chr> <int>
    ## 1 good morning    18

### Gimme artist's with 'Lil' in their name.

``` r
# return artist matches for term 'lil'
search_artist(search_term = "Lil", n_results = 500) %>% 
  distinct(artist_name)
```

    ## # A tibble: 40 x 1
    ##                       artist_name
    ##                             <chr>
    ##  1                   Lil Uzi Vert
    ##  2                       Lil Pump
    ##  3                      Lil Wayne
    ##  4 Nicki Minaj, Drake & Lil Wayne
    ##  5                      Lil Dicky
    ##  6                       Lil Durk
    ##  7                        Lil Xan
    ##  8      Lil' Kleine & Ronnie Flex
    ##  9                     Lil Yachty
    ## 10   Lil Jon & The East Side Boyz
    ## # ... with 30 more rows
…
