Tools for Working with the 'Genius' API • geniusr
…
Gimme artist’s with ‘Lil’ in their name.

# return artist matches for term 'lil'
search_artist(search_term = "Lil", n_results = 500) %>% 
  distinct(artist_name)
#> # A tibble: 73 x 1
#>    artist_name           
#>    <chr>                 
#>  1 Lil Uzi Vert          
#>  2 Lil Pump              
#>  3 Kanye West & Lil Pump 
#>  4 Lil Wayne             
#>  5 Chance the Rapper     
#>  6 Kodak Black           
#>  7 Lil Peep              
#>  8 Lil Baby & Drake      
#>  9 Tay-K                 
#> 10 Ski Mask the Slump God
#> # … with 63 more rows
…
