geniusr: the basics • geniusr
…
Lyrics

There are also tools to be found in geniusr that help
with Genius lyrics retrieval. These functions take the form…you guessed
it…get_lyrics_xxx(). For example,
get_lyrics_id() finds song lyrics for a given song id, and
returns this data as a tidy tibble - each line of the track as an
observation (i.e. a row).

To complete the look, here’s song lyrics for Sing About Me, I’m
Dying of Thirst:

get_lyrics_id(song_id = 90479)
#> # A tibble: 248 × 6
#>    line                                  secti…¹ secti…² song_…³ artis…⁴ song_id
#>    <chr>                                 <chr>   <chr>   <chr>   <chr>     <dbl>
#>  1 When the lights shut off and it's my… Chorus  Kendri… Sing A… Kendri…   90479
#>  2 To settle down, my main concern       Chorus  Kendri… Sing A… Kendri…   90479
#>  3 Promise that you will sing about me   Chorus  Kendri… Sing A… Kendri…   90479
#>  4 Promise that you will sing about me   Chorus  Kendri… Sing A… Kendri…   90479
#>  5 I said when the lights shut off and … Chorus  Kendri… Sing A… Kendri…   90479
#>  6 To settle down, my main concern       Chorus  Kendri… Sing A… Kendri…   90479
#>  7 Promise that you will sing about me   Chorus  Kendri… Sing A… Kendri…   90479
#>  8 Promise that you will sing about me   Chorus  Kendri… Sing A… Kendri…   90479
#>  9 I woke up this morning and figured I… Verse 1 Kendri… Sing A… Kendri…   90479
#> 10 In case I'm not here tomorrow         Verse 1 Kendri… Sing A… Kendri…   90479
#> # … with 238 more rows, and abbreviated variable names ¹​section_name,
#> #   ²​section_artist, ³​song_name, ⁴​artist_name
…
